{
  "firmware_version": "1.0.2",
  "serial_number":    "BTR-D-TEST-20180112-001",
  "ts_created":       "2018-01-12T03:22:03",
  "manufacturer":     "Siemens",
  "type":             "GSM Modem",
  "model":            "MC-45",
  "label":            "Siemens MC-45"
}
